Какая версия Java самая новая на сентябрь 2021 года?;15:16:17;16
Какой город является столицей Великобритании?;Лондон:Манчестер:Глазго;Лондон
Какой из пассажирских авиалайнеров самый большой?;Airbus-A380:Boeing-737:Ил-86;Airbus-A380
Как называется самая высокая гора?;Эльбрус:Эверест:Аконкагуа;Эверест
Какая река является самой длинной (вместе с притоками)?;Нил:Енисей:Амазонка;Амазонка